FPGA/LFO/Radient/Passthrough/Passthrough/Sim/LFOgen.vcd
$date
	Tue Nov 25 17:40:08 2025
$end
$version
	Questa Lattice OEM Edition 2024.2
$end
$timescale
	1ps
$end

$scope module LFOgen_tb $end
$var parameter 0 ! CLK_PERIOD $end
$var parameter 0 " HALF_PERIOD $end
$var parameter 32 # CYCLES_PER_TICK $end
$var parameter 0 $ TICK_PERIOD_NS $end
$var reg 1 % clk $end
$var reg 1 & reset $end
$var reg 4 ' freqSetting [3:0] $end
$var reg 4 ( scaleFactor [3:0] $end
$var reg 16 ) waveOut [15:0] $end
$var reg 1 * tick48k_mon $end
$var reg 32 + phaseAcc_mon [31:0] $end
$var reg 32 , tuningVal_mon [31:0] $end

$scope module DUT $end
$var wire 1 - clk $end
$var wire 1 . reset $end
$var wire 1 / freqSetting [3] $end
$var wire 1 0 freqSetting [2] $end
$var wire 1 1 freqSetting [1] $end
$var wire 1 2 freqSetting [0] $end
$var wire 1 3 scaleFactor [3] $end
$var wire 1 4 scaleFactor [2] $end
$var wire 1 5 scaleFactor [1] $end
$var wire 1 6 scaleFactor [0] $end
$var reg 16 7 waveOut [15:0] $end
$var reg 1 8 newValFlag $end
$var reg 32 9 phaseAcc [31:0] $end
$var reg 32 : tuningVal [31:0] $end
$var reg 16 ; preWave [15:0] $end
$var reg 21 < multResult [20:0] $end
$var reg 21 = multResultPrev [20:0] $end
$var reg 7 > counter [6:0] $end
$var reg 1 ? tick48k $end
$upscope $end
$upscope $end
$enddefinitions $end
#0
$dumpvars
0%
1&
b0 '
b0 (
bx )
x*
bx +
b10001011110100 ,
bx 7
x8
bx 9
b10001011110100 :
bx ;
bx <
bx =
bx >
x?
b1111101 #
r166.666 !
r83.333 "
r20833.25 $
06
05
04
03
02
01
00
0/
1.
0-
$end
#83333
1%
1-
b0 >
0?
b0 9
b0 7
b0 ;
b0 <
b0 )
b0 +
0*
#166666
0%
0-
#249999
1%
1-
#333332
0%
0-
#416665
1%
1-
#499998
0%
0-
#583331
1%
1-
#666664
0%
0-
#749997
1%
1-
#833330
0&
0%
0.
0-
#916663
1%
1-
b1 >
#999996
0%
0-
#1083329
1%
1-
b10 >
#1166662
0%
0-
#1249995
1%
1-
b11 >
#1333328
0%
0-
#1416661
1%
1-
b100 >
#1499994
0%
0-
#1583327
1%
1-
b101 >
#1666660
0%
0-
#1749993
1%
1-
b110 >
#1833326
0%
0-
#1916659
1%
1-
b111 >
#1999992
0%
0-
#2083325
1%
1-
b1000 >
#2166658
0%
0-
#2249991
1%
1-
b1001 >
#2333324
0%
0-
#2416657
1%
1-
b1010 >
#2499990
0%
0-
#2583323
1%
1-
b1011 >
#2666656
0%
0-
#2749989
1%
1-
b1100 >
#2833322
0%
0-
#2916655
1%
1-
b1101 >
#2999988
0%
0-
#3083321
1%
1-
b1110 >
#3166654
0%
0-
#3249987
1%
1-
b1111 >
#3333320
0%
0-
#3416653
1%
1-
b10000 >
#3499986
0%
0-
#3583319
1%
1-
b10001 >
#3666652
0%
0-
#3749985
1%
1-
b10010 >
#3833318
0%
0-
#3916651
1%
1-
b10011 >
#3999984
0%
0-
#4083317
1%
1-
b10100 >
#4166650
0%
0-
#4249983
1%
1-
b10101 >
#4333316
0%
0-
#4416649
1%
1-
b10110 >
#4499982
0%
0-
#4583315
1%
1-
b10111 >
#4666648
0%
0-
#4749981
1%
1-
b11000 >
#4833314
0%
0-
#4916647
1%
1-
b11001 >
#4999980
0%
0-
#5083313
1%
1-
b11010 >
#5166646
0%
0-
#5249979
1%
1-
b11011 >
#5333312
0%
0-
#5416645
1%
1-
b11100 >
#5499978
0%
0-
#5583311
1%
1-
b11101 >
#5666644
0%
0-
#5749977
1%
1-
b11110 >
#5833310
0%
0-
#5916643
1%
1-
b11111 >
#5999976
0%
0-
#6083309
1%
1-
b100000 >
#6166642
0%
0-
#6249975
1%
1-
b100001 >
#6333308
0%
0-
#6416641
1%
1-
b100010 >
#6499974
0%
0-
#6583307
1%
1-
b100011 >
#6666640
0%
0-
#6749973
1%
1-
b100100 >
#6833306
0%
0-
#6916639
1%
1-
b100101 >
#6999972
0%
0-
#7083305
1%
1-
b100110 >
#7166638
0%
0-
#7249971
1%
1-
b100111 >
#7333304
0%
0-
#7416637
1%
1-
b101000 >
#7499970
0%
0-
#7583303
1%
1-
b101001 >
#7666636
0%
0-
#7749969
1%
1-
b101010 >
#7833302
0%
0-
#7916635
1%
1-
b101011 >
#7999968
0%
0-
#8083301
1%
1-
b101100 >
#8166634
0%
0-
#8249967
1%
1-
b101101 >
#8333300
0%
0-
#8416633
1%
1-
b101110 >
#8499966
0%
0-
#8583299
1%
1-
b101111 >
#8666632
0%
0-
#8749965
1%
1-
b110000 >
#8833298
0%
0-
#8916631
1%
1-
b110001 >
#8999964
0%
0-
#9083297
1%
1-
b110010 >
#9166630
0%
0-
#9249963
1%
1-
b110011 >
#9333296
0%
0-
#9416629
1%
1-
b110100 >
#9499962
0%
0-
#9583295
1%
1-
b110101 >
#9666628
0%
0-
#9749961
1%
1-
b110110 >
#9833294
0%
0-
#9916627
1%
1-
b110111 >
#9999960
0%
0-
#10083293
1%
1-
b111000 >
#10166626
0%
0-
#10249959
1%
1-
b111001 >
#10333292
0%
0-
#10416625
1%
1-
b111010 >
#10499958
0%
0-
#10583291
1%
1-
b111011 >
#10666624
0%
0-
#10749957
1%
1-
b111100 >
#10833290
0%
0-
#10916623
1%
1-
b111101 >
#10999956
0%
0-
#11083289
1%
1-
b111110 >
#11166622
0%
0-
#11249955
1%
1-
b111111 >
#11333288
0%
0-
#11416621
1%
1-
b1000000 >
#11499954
0%
0-
#11583287
1%
1-
b1000001 >
#11666620
0%
0-
#11749953
1%
1-
b1000010 >
#11833286
0%
0-
#11916619
1%
1-
b1000011 >
#11999952
0%
0-
#12083285
1%
1-
b1000100 >
#12166618
0%
0-
#12249951
1%
1-
b1000101 >
#12333284
0%
0-
#12416617
1%
1-
b1000110 >
#12499950
0%
0-
#12583283
1%
1-
b1000111 >
#12666616
0%
0-
#12749949
1%
1-
b1001000 >
#12833282
0%
0-
#12916615
1%
1-
b1001001 >
#12999948
0%
0-
#13083281
1%
1-
b1001010 >
#13166614
0%
0-
#13249947
1%
1-
b1001011 >
#13333280
0%
0-
#13416613
1%
1-
b1001100 >
#13499946
0%
0-
#13583279
1%
1-
b1001101 >
#13666612
0%
0-
#13749945
1%
1-
b1001110 >
#13833278
0%
0-
#13916611
1%
1-
b1001111 >
#13999944
0%
0-
#14083277
1%
1-
b1010000 >
#14166610
0%
0-
#14249943
1%
1-
b1010001 >
#14333276
0%
0-
#14416609
1%
1-
b1010010 >
#14499942
0%
0-
#14583275
1%
1-
b1010011 >
#14666608
0%
0-
#14749941
1%
1-
b1010100 >
#14833274
0%
0-
#14916607
1%
1-
b1010101 >
#14999940
0%
0-
#15083273
1%
1-
b1010110 >
#15166606
0%
0-
#15249939
1%
1-
b1010111 >
#15333272
0%
0-
#15416605
1%
1-
b1011000 >
#15499938
0%
0-
#15583271
1%
1-
b1011001 >
#15666604
0%
0-
#15749937
1%
1-
b1011010 >
#15833270
0%
0-
#15916603
1%
1-
b1011011 >
#15999936
0%
0-
#16083269
1%
1-
b1011100 >
#16166602
0%
0-
#16249935
1%
1-
b1011101 >
#16333268
0%
0-
#16416601
1%
1-
b1011110 >
#16499934
0%
0-
#16583267
1%
1-
b1011111 >
#16666600
0%
0-
#16749933
1%
1-
b1100000 >
#16833266
0%
0-
#16916599
1%
1-
b1100001 >
#16999932
0%
0-
#17083265
1%
1-
b1100010 >
#17166598
0%
0-
#17249931
1%
1-
b1100011 >
#17333264
0%
0-
#17416597
1%
1-
b1100100 >
#17499930
0%
0-
#17583263
1%
1-
b1100101 >
#17666596
0%
0-
#17749929
1%
1-
b1100110 >
#17833262
0%
0-
#17916595
1%
1-
b1100111 >
#17999928
0%
0-
#18083261
1%
1-
b1101000 >
#18166594
0%
0-
#18249927
1%
1-
b1101001 >
#18333260
0%
0-
#18416593
1%
1-
b1101010 >
#18499926
0%
0-
#18583259
1%
1-
b1101011 >
#18666592
0%
0-
#18749925
1%
1-
b1101100 >
#18833258
0%
0-
#18916591
1%
1-
b1101101 >
#18999924
0%
0-
#19083257
1%
1-
b1101110 >
#19166590
0%
0-
#19249923
1%
1-
b1101111 >
#19333256
0%
0-
#19416589
1%
1-
b1110000 >
#19499922
0%
0-
#19583255
1%
1-
b1110001 >
#19666588
0%
0-
#19749921
1%
1-
b1110010 >
#19833254
0%
0-
#19916587
1%
1-
b1110011 >
#19999920
0%
0-
#20083253
1%
1-
b1110100 >
#20166586
0%
0-
#20249919
1%
1-
b1110101 >
#20333252
0%
0-
#20416585
1%
1-
b1110110 >
#20499918
0%
0-
#20583251
1%
1-
b1110111 >
#20666584
0%
0-
#20749917
1%
1-
b1111000 >
#20833250
0%
0-
#20916583
1%
1-
b1111001 >
#20999916
0%
0-
#21083249
1%
1-
b1111010 >
#21166582
0%
0-
#21249915
1%
1-
b1111011 >
#21333248
0%
0-
#21416581
1%
1-
b1111100 >
#21499914
0%
0-
#21583247
1%
1-
b0 >
1?
1*
#21584247
b11 '
b1111 (
16
15
14
13
12
11
b10101110110000110 :
b10101110110000110 ,
#21666580
0%
0-
#21749913
1%
1-
08
b1 >
0?
b10101110110000110 9
bx ;
b0 =
b10101110110000110 +
0*
#21833246
0%
0-
#21916579
1%
1-
b10 >
#21999912
0%
0-
#22083245
1%
1-
b11 >
#22166578
0%
0-
#22249911
1%
1-
b100 >
#22333244
0%
0-
#22416577
1%
1-
b101 >
#22499910
0%
0-
#22583243
1%
1-
b110 >
#22666576
0%
0-
#22749909
1%
1-
b111 >
#22833242
0%
0-
#22916575
1%
1-
b1000 >
#22999908
0%
0-
#23083241
1%
1-
b1001 >
#23166574
0%
0-
#23249907
1%
1-
b1010 >
#23333240
0%
0-
#23416573
1%
1-
b1011 >
#23499906
0%
0-
#23583239
1%
1-
b1100 >
#23666572
0%
0-
#23749905
1%
1-
b1101 >
#23833238
0%
0-
#23916571
1%
1-
b1110 >
#23999904
0%
0-
#24083237
1%
1-
b1111 >
#24166570
0%
0-
#24249903
1%
1-
b10000 >
#24333236
0%
0-
#24416569
1%
1-
b10001 >
#24499902
0%
0-
#24583235
1%
1-
b10010 >
#24666568
0%
0-
#24749901
1%
1-
b10011 >
#24833234
0%
0-
#24916567
1%
1-
b10100 >
#24999900
0%
0-
#25083233
1%
1-
b10101 >
#25166566
0%
0-
#25249899
1%
1-
b10110 >
#25333232
0%
0-
#25416565
1%
1-
b10111 >
#25499898
0%
0-
#25583231
1%
1-
b11000 >
#25666564
0%
0-
#25749897
1%
1-
b11001 >
#25833230
0%
0-
#25916563
1%
1-
b11010 >
#25999896
0%
0-
#26083229
1%
1-
b11011 >
#26166562
0%
0-
#26249895
1%
1-
b11100 >
#26333228
0%
0-
#26416561
1%
1-
b11101 >
#26499894
0%
0-
#26583227
1%
1-
b11110 >
#26666560
0%
0-
#26749893
1%
1-
b11111 >
#26833226
0%
0-
#26916559
1%
1-
b100000 >
#26999892
0%
0-
#27083225
1%
1-
b100001 >
#27166558
0%
0-
#27249891
1%
1-
b100010 >
#27333224
0%
0-
#27416557
1%
1-
b100011 >
#27499890
0%
0-
#27583223
1%
1-
b100100 >
#27666556
0%
0-
#27749889
1%
1-
b100101 >
#27833222
0%
0-
#27916555
1%
1-
b100110 >
#27999888
0%
0-
#28083221
1%
1-
b100111 >
#28166554
0%
0-
#28249887
1%
1-
b101000 >
#28333220
0%
0-
#28416553
1%
1-
b101001 >
#28499886
0%
0-
#28583219
1%
1-
b101010 >
#28666552
0%
0-
#28749885
1%
1-
b101011 >
#28833218
0%
0-
#28916551
1%
1-
b101100 >
#28999884
0%
0-
#29083217
1%
1-
b101101 >
#29166550
0%
0-
#29249883
1%
1-
b101110 >
#29333216
0%
0-
#29416549
1%
1-
b101111 >
#29499882
0%
0-
#29583215
1%
1-
b110000 >
#29666548
0%
0-
#29749881
1%
1-
b110001 >
#29833214
0%
0-
#29916547
1%
1-
b110010 >
#29999880
0%
0-
#30083213
1%
1-
b110011 >
#30166546
0%
0-
#30249879
1%
1-
b110100 >
#30333212
0%
0-
#30416545
1%
1-
b110101 >
#30499878
0%
0-
#30583211
1%
1-
b110110 >
#30666544
0%
0-
#30749877
1%
1-
b110111 >
#30833210
0%
0-
#30916543
1%
1-
b111000 >
#30999876
0%
0-
#31083209
1%
1-
b111001 >
#31166542
0%
0-
#31249875
1%
1-
b111010 >
#31333208
0%
0-
#31416541
1%
1-
b111011 >
#31499874
0%
0-
#31583207
1%
1-
b111100 >
#31666540
0%
0-
#31749873
1%
1-
b111101 >
#31833206
0%
0-
#31916539
1%
1-
b111110 >
#31999872
0%
0-
#32083205
1%
1-
b111111 >
#32166538
0%
0-
#32249871
1%
1-
b1000000 >
#32333204
0%
0-
#32416537
1%
1-
b1000001 >
#32499870
0%
0-
#32583203
1%
1-
b1000010 >
#32666536
0%
0-
#32749869
1%
1-
b1000011 >
#32833202
0%
0-
#32916535
1%
1-
b1000100 >
#32999868
0%
0-
#33083201
1%
1-
b1000101 >
#33166534
0%
0-
#33249867
1%
1-
b1000110 >
#33333200
0%
0-
#33416533
1%
1-
b1000111 >
#33499866
0%
0-
#33583199
1%
1-
b1001000 >
#33666532
0%
0-
#33749865
1%
1-
b1001001 >
#33833198
0%
0-
#33916531
1%
1-
b1001010 >
#33999864
0%
0-
#34083197
1%
1-
b1001011 >
#34166530
0%
0-
#34249863
1%
1-
b1001100 >
#34333196
0%
0-
#34416529
1%
1-
b1001101 >
#34499862
0%
0-
#34583195
1%
1-
b1001110 >
#34666528
0%
0-
#34749861
1%
1-
b1001111 >
#34833194
0%
0-
#34916527
1%
1-
b1010000 >
#34999860
0%
0-
#35083193
1%
1-
b1010001 >
#35166526
0%
0-
#35249859
1%
1-
b1010010 >
#35333192
0%
0-
#35416525
1%
1-
b1010011 >
#35499858
0%
0-
#35583191
1%
1-
b1010100 >
#35666524
0%
0-
#35749857
1%
1-
b1010101 >
#35833190
0%
0-
#35916523
1%
1-
b1010110 >
#35999856
0%
0-
#36083189
1%
1-
b1010111 >
#36166522
0%
0-
#36249855
1%
1-
b1011000 >
#36333188
0%
0-
#36416521
1%
1-
b1011001 >
#36499854
0%
0-
#36583187
1%
1-
b1011010 >
#36666520
0%
0-
#36749853
1%
1-
b1011011 >
#36833186
0%
0-
#36916519
1%
1-
b1011100 >
#36999852
0%
0-
#37083185
1%
1-
b1011101 >
#37166518
0%
0-
#37249851
1%
1-
b1011110 >
#37333184
0%
0-
#37416517
1%
1-
b1011111 >
#37499850
0%
0-
#37583183
1%
1-
b1100000 >
#37666516
0%
0-
#37749849
1%
1-
b1100001 >
#37833182
0%
0-
#37916515
1%
1-
b1100010 >
#37999848
0%
0-
#38083181
1%
1-
b1100011 >
#38166514
0%
0-
#38249847
1%
1-
b1100100 >
#38333180
0%
0-
#38416513
1%
1-
b1100101 >
#38499846
0%
0-
#38583179
1%
1-
b1100110 >
#38666512
0%
0-
#38749845
1%
1-
b1100111 >
#38833178
0%
0-
#38916511
1%
1-
b1101000 >
#38999844
0%
0-
#39083177
1%
1-
b1101001 >
#39166510
0%
0-
#39249843
1%
1-
b1101010 >
#39333176
0%
0-
#39416509
1%
1-
b1101011 >
#39499842
0%
0-
#39583175
1%
1-
b1101100 >
#39666508
0%
0-
#39749841
1%
1-
b1101101 >
#39833174
0%
0-
#39916507
1%
1-
b1101110 >
#39999840
0%
0-
#40083173
1%
1-
b1101111 >
#40166506
0%
0-
#40249839
1%
1-
b1110000 >
#40333172
0%
0-
#40416505
1%
1-
b1110001 >
#40499838
0%
0-
#40583171
1%
1-
b1110010 >
#40666504
0%
0-
#40749837
1%
1-
b1110011 >
#40833170
0%
0-
#40916503
1%
1-
b1110100 >
#40999836
0%
0-
#41083169
1%
1-
b1110101 >
#41166502
0%
0-
#41249835
1%
1-
b1110110 >
#41333168
0%
0-
#41416501
1%
1-
b1110111 >
#41499834
0%
0-
#41583167
1%
1-
b1111000 >
#41666500
0%
0-
#41749833
1%
1-
b1111001 >
#41833166
0%
0-
#41916499
1%
1-
b1111010 >
#41999832
0%
0-
#42083165
1%
1-
b1111011 >
#42166498
0%
0-
#42249831
1%
1-
b1111100 >
#42333164
0%
0-
#42416497
1%
1-
b0 >
1?
1*
#42499830
0%
0-
#42583163
1%
1-
b1 >
0?
b101011101100001100 9
bx <
b101011101100001100 +
0*
#42666496
0%
0-
#42749829
1%
1-
b10 >
#42833162
0%
0-
#42916495
1%
1-
b11 >
#42999828
0%
0-
#43083161
1%
1-
b100 >
#43166494
0%
0-
#43249827
1%
1-
b101 >
#43333160
0%
0-
#43416493
1%
1-
b110 >
#43499826
0%
0-
#43583159
1%
1-
b111 >
#43666492
0%
0-
#43749825
1%
1-
b1000 >
#43833158
0%
0-
#43916491
1%
1-
b1001 >
#43999824
0%
0-
#44083157
1%
1-
b1010 >
#44166490
0%
0-
#44249823
1%
1-
b1011 >
#44333156
0%
0-
#44416489
1%
1-
b1100 >
#44499822
0%
0-
#44583155
1%
1-
b1101 >
#44666488
0%
0-
#44749821
1%
1-
b1110 >
#44833154
0%
0-
#44916487
1%
1-
b1111 >
#44999820
0%
0-
#45083153
1%
1-
b10000 >
#45166486
0%
0-
#45249819
1%
1-
b10001 >
#45333152
0%
0-
#45416485
1%
1-
b10010 >
#45499818
0%
0-
#45583151
1%
1-
b10011 >
#45666484
0%
0-
#45749817
1%
1-
b10100 >
#45833150
0%
0-
#45916483
1%
1-
b10101 >
#45999816
0%
0-
#46083149
1%
1-
b10110 >
#46166482
0%
0-
#46249815
1%
1-
b10111 >
#46333148
0%
0-
#46416481
1%
1-
b11000 >
#46499814
0%
0-
#46583147
1%
1-
b11001 >
#46666480
0%
0-
#46749813
1%
1-
b11010 >
#46833146
0%
0-
#46916479
1%
1-
b11011 >
#46999812
0%
0-
#47083145
1%
1-
b11100 >
#47166478
0%
0-
#47249811
1%
1-
b11101 >
#47333144
0%
0-
#47416477
1%
1-
b11110 >
#47499810
0%
0-
#47583143
1%
1-
b11111 >
#47666476
0%
0-
#47749809
1%
1-
b100000 >
#47833142
0%
0-
#47916475
1%
1-
b100001 >
#47999808
0%
0-
#48083141
1%
1-
b100010 >
#48166474
0%
0-
#48249807
1%
1-
b100011 >
#48333140
0%
0-
#48416473
1%
1-
b100100 >
#48499806
0%
0-
#48583139
1%
1-
b100101 >
#48666472
0%
0-
#48749805
1%
1-
b100110 >
#48833138
0%
0-
#48916471
1%
1-
b100111 >
#48999804
0%
0-
#49083137
1%
1-
b101000 >
#49166470
0%
0-
#49249803
1%
1-
b101001 >
#49333136
0%
0-
#49416469
1%
1-
b101010 >
#49499802
0%
0-
#49583135
1%
1-
b101011 >
#49666468
0%
0-
#49749801
1%
1-
b101100 >
#49833134
0%
0-
#49916467
1%
1-
b101101 >
#49999800
0%
0-
#50083133
1%
1-
b101110 >
#50166466
0%
0-
#50249799
1%
1-
b101111 >
#50333132
0%
0-
#50416465
1%
1-
b110000 >
#50499798
0%
0-
#50583131
1%
1-
b110001 >
#50666464
0%
0-
#50749797
1%
1-
b110010 >
#50833130
0%
0-
#50916463
1%
1-
b110011 >
#50999796
0%
0-
#51083129
1%
1-
b110100 >
#51166462
0%
0-
#51249795
1%
1-
b110101 >
#51333128
0%
0-
#51416461
1%
1-
b110110 >
#51499794
0%
0-
#51583127
1%
1-
b110111 >
#51666460
0%
0-
#51749793
1%
1-
b111000 >
#51833126
0%
0-
#51916459
1%
1-
b111001 >
#51999792
0%
0-
#52083125
1%
1-
b111010 >
#52166458
0%
0-
#52249791
1%
1-
b111011 >
#52333124
0%
0-
#52416457
1%
1-
b111100 >
#52499790
0%
0-
#52583123
1%
1-
b111101 >
#52666456
0%
0-
#52749789
1%
1-
b111110 >
#52833122
0%
0-
#52916455
1%
1-
b111111 >
#52999788
0%
0-
#53083121
1%
1-
b1000000 >
#53166454
0%
0-
#53249787
1%
1-
b1000001 >
#53333120
0%
0-
#53416453
1%
1-
b1000010 >
#53499786
0%
0-
#53583119
1%
1-
b1000011 >
#53666452
0%
0-
#53749785
1%
1-
b1000100 >
#53833118
0%
0-
#53916451
1%
1-
b1000101 >
#53999784
0%
0-
#54083117
1%
1-
b1000110 >
#54166450
0%
0-
#54249783
1%
1-
b1000111 >
#54333116
0%
0-
#54416449
1%
1-
b1001000 >
#54499782
0%
0-
#54583115
1%
1-
b1001001 >
#54666448
0%
0-
#54749781
1%
1-
b1001010 >
#54833114
0%
0-
#54916447
1%
1-
b1001011 >
#54999780
0%
0-
#55083113
1%
1-
b1001100 >
#55166446
0%
0-
#55249779
1%
1-
b1001101 >
#55333112
0%
0-
#55416445
1%
1-
b1001110 >
#55499778
0%
0-
#55583111
1%
1-
b1001111 >
#55666444
0%
0-
#55749777
1%
1-
b1010000 >
#55833110
0%
0-
#55916443
1%
1-
b1010001 >
#55999776
0%
0-
#56083109
1%
1-
b1010010 >
#56166442
0%
0-
#56249775
1%
1-
b1010011 >
#56333108
0%
0-
#56416441
1%
1-
b1010100 >
#56499774
0%
0-
#56583107
1%
1-
b1010101 >
#56666440
0%
0-
#56749773
1%
1-
b1010110 >
#56833106
0%
0-
#56916439
1%
1-
b1010111 >
#56999772
0%
0-
#57083105
1%
1-
b1011000 >
#57166438
0%
0-
#57249771
1%
1-
b1011001 >
#57333104
0%
0-
#57416437
1%
1-
b1011010 >
#57499770
0%
0-
#57583103
1%
1-
b1011011 >
#57666436
0%
0-
#57749769
1%
1-
b1011100 >
#57833102
0%
0-
#57916435
1%
1-
b1011101 >
#57999768
0%
0-
#58083101
1%
1-
b1011110 >
#58166434
0%
0-
#58249767
1%
1-
b1011111 >
#58333100
0%
0-
#58416433
1%
1-
b1100000 >
#58499766
0%
0-
#58583099
1%
1-
b1100001 >
#58666432
0%
0-
#58749765
1%
1-
b1100010 >
#58833098
0%
0-
#58916431
1%
1-
b1100011 >
#58999764
0%
0-
#59083097
1%
1-
b1100100 >
#59166430
0%
0-
#59249763
1%
1-
b1100101 >
#59333096
0%
0-
#59416429
1%
1-
b1100110 >
#59499762
0%
0-
#59583095
1%
1-
b1100111 >
#59666428
0%
0-
#59749761
1%
1-
b1101000 >
#59833094
0%
0-
#59916427
1%
1-
b1101001 >
#59999760
0%
0-
#60083093
1%
1-
b1101010 >
#60166426
0%
0-
#60249759
1%
1-
b1101011 >
#60333092
0%
0-
#60416425
1%
1-
b1101100 >
#60499758
0%
0-
#60583091
1%
1-
b1101101 >
#60666424
0%
0-
#60749757
1%
1-
b1101110 >
#60833090
0%
0-
#60916423
1%
1-
b1101111 >
#60999756
0%
0-
#61083089
1%
1-
b1110000 >
#61166422
0%
0-
#61249755
1%
1-
b1110001 >
#61333088
0%
0-
#61416421
1%
1-
b1110010 >
#61499754
0%
0-
#61583087
1%
1-
b1110011 >
#61666420
0%
0-
#61749753
1%
1-
b1110100 >
#61833086
0%
0-
#61916419
1%
1-
b1110101 >
#61999752
0%
0-
#62083085
1%
1-
b1110110 >
#62166418
0%
0-
#62249751
1%
1-
b1110111 >
#62333084
0%
0-
#62416417
1%
1-
b1111000 >
#62499750
0%
0-
#62583083
1%
1-
b1111001 >
#62666416
0%
0-
#62749749
1%
1-
b1111010 >
#62833082
0%
0-
#62916415
1%
1-
b1111011 >
#62999748
0%
0-
#63083081
1%
1-
b1111100 >
#63166414
0%
0-
#63249747
1%
1-
b0 >
1?
1*
#63333080
0%
0-
#63416413
1%
1-
b1 >
0?
b1000001100010010010 9
bx =
bx 7
bx )
b1000001100010010010 +
0*
#63499746
0%
0-
#63583079
1%
1-
b10 >
#63666412
0%
0-
#63749745
1%
1-
b11 >
#63833078
0%
0-
#63916411
1%
1-
b100 >
#63999744
0%
0-
#64083077
1%
1-
b101 >
#64166410
0%
0-
#64249743
1%
1-
b110 >
#64333076
0%
0-
#64416409
1%
1-
b111 >
#64499742
0%
0-
#64583075
1%
1-
b1000 >
#64666408
0%
0-
#64749741
1%
1-
b1001 >
#64833074
0%
0-
#64916407
1%
1-
b1010 >
#64999740
0%
0-
#65083073
1%
1-
b1011 >
#65166406
0%
0-
#65249739
1%
1-
b1100 >
#65333072
0%
0-
#65416405
1%
1-
b1101 >
#65499738
0%
0-
#65583071
1%
1-
b1110 >
#65666404
0%
0-
#65749737
1%
1-
b1111 >
#65833070
0%
0-
#65916403
1%
1-
b10000 >
#65999736
0%
0-
#66083069
1%
1-
b10001 >
#66166402
0%
0-
#66249735
1%
1-
b10010 >
#66333068
0%
0-
#66416401
1%
1-
b10011 >
#66499734
0%
0-
#66583067
1%
1-
b10100 >
#66666400
0%
0-
#66749733
1%
1-
b10101 >
#66833066
0%
0-
#66916399
1%
1-
b10110 >
#66999732
0%
0-
#67083065
1%
1-
b10111 >
#67166398
0%
0-
#67249731
1%
1-
b11000 >
#67333064
0%
0-
#67416397
1%
1-
b11001 >
#67499730
0%
0-
#67583063
1%
1-
b11010 >
#67666396
0%
0-
#67749729
1%
1-
b11011 >
#67833062
0%
0-
#67916395
1%
1-
b11100 >
#67999728
0%
0-
#68083061
1%
1-
b11101 >
#68166394
0%
0-
#68249727
1%
1-
b11110 >
#68333060
0%
0-
#68416393
1%
1-
b11111 >
#68499726
0%
0-
#68583059
1%
1-
b100000 >
#68666392
0%
0-
#68749725
1%
1-
b100001 >
#68833058
0%
0-
#68916391
1%
1-
b100010 >
#68999724
0%
0-
#69083057
1%
1-
b100011 >
#69166390
0%
0-
#69249723
1%
1-
b100100 >
#69333056
0%
0-
#69416389
1%
1-
b100101 >
#69499722
0%
0-
#69583055
1%
1-
b100110 >
#69666388
0%
0-
#69749721
1%
1-
b100111 >
#69833054
0%
0-
#69916387
1%
1-
b101000 >
#69999720
0%
0-
#70083053
1%
1-
b101001 >
#70166386
0%
0-
#70249719
1%
1-
b101010 >
#70333052
0%
0-
#70416385
1%
1-
b101011 >
#70499718
0%
0-
#70583051
1%
1-
b101100 >
#70666384
0%
0-
#70749717
1%
1-
b101101 >
#70833050
0%
0-
#70916383
1%
1-
b101110 >
#70999716
0%
0-
#71083049
1%
1-
b101111 >
#71166382
0%
0-
#71249715
1%
1-
b110000 >
#71333048
0%
0-
#71416381
1%
1-
b110001 >
#71499714
0%
0-
#71583047
1%
1-
b110010 >
#71666380
0%
0-
#71749713
1%
1-
b110011 >
#71833046
0%
0-
#71916379
1%
1-
b110100 >
#71999712
0%
0-
#72083045
1%
1-
b110101 >
#72166378
0%
0-
#72249711
1%
1-
b110110 >
#72333044
0%
0-
#72416377
1%
1-
b110111 >
#72499710
0%
0-
#72583043
1%
1-
b111000 >
#72666376
0%
0-
#72749709
1%
1-
b111001 >
#72833042
0%
0-
#72916375
1%
1-
b111010 >
#72999708
0%
0-
#73083041
1%
1-
b111011 >
#73166374
0%
0-
#73249707
1%
1-
b111100 >
#73333040
0%
0-
#73416373
1%
1-
b111101 >
#73499706
0%
0-
#73583039
1%
1-
b111110 >
#73666372
0%
0-
#73749705
1%
1-
b111111 >
#73833038
0%
0-
#73916371
1%
1-
b1000000 >
#73999704
0%
0-
#74083037
1%
1-
b1000001 >
#74166370
0%
0-
#74249703
1%
1-
b1000010 >
#74333036
0%
0-
#74416369
1%
1-
b1000011 >
#74499702
0%
0-
#74583035
1%
1-
b1000100 >
#74666368
0%
0-
#74749701
1%
1-
b1000101 >
#74833034
0%
0-
#74916367
1%
1-
b1000110 >
#74999700
0%
0-
#75083033
1%
1-
b1000111 >
#75166366
0%
0-
#75249699
1%
1-
b1001000 >
#75333032
0%
0-
#75416365
1%
1-
b1001001 >
#75499698
0%
0-
#75583031
1%
1-
b1001010 >
#75666364
0%
0-
#75749697
1%
1-
b1001011 >
#75833030
0%
0-
#75916363
1%
1-
b1001100 >
#75999696
0%
0-
#76083029
1%
1-
b1001101 >
#76166362
0%
0-
#76249695
1%
1-
b1001110 >
#76333028
0%
0-
#76416361
1%
1-
b1001111 >
#76499694
0%
0-
#76583027
1%
1-
b1010000 >
#76666360
0%
0-
#76749693
1%
1-
b1010001 >
#76833026
0%
0-
#76916359
1%
1-
b1010010 >
#76999692
0%
0-
#77083025
1%
1-
b1010011 >
#77166358
0%
0-
#77249691
1%
1-
b1010100 >
#77333024
0%
0-
#77416357
1%
1-
b1010101 >
#77499690
0%
0-
#77583023
1%
1-
b1010110 >
#77666356
0%
0-
#77749689
1%
1-
b1010111 >
#77833022
0%
0-
#77916355
1%
1-
b1011000 >
#77999688
0%
0-
#78083021
1%
1-
b1011001 >
#78166354
0%
0-
#78249687
1%
1-
b1011010 >
#78333020
0%
0-
#78416353
1%
1-
b1011011 >
#78499686
0%
0-
#78583019
1%
1-
b1011100 >
#78666352
0%
0-
#78749685
1%
1-
b1011101 >
#78833018
0%
0-
#78916351
1%
1-
b1011110 >
#78999684
0%
0-
#79083017
1%
1-
b1011111 >
#79166350
0%
0-
#79249683
1%
1-
b1100000 >
#79333016
0%
0-
#79416349
1%
1-
b1100001 >
#79499682
0%
0-
#79583015
1%
1-
b1100010 >
#79666348
0%
0-
#79749681
1%
1-
b1100011 >
#79833014
0%
0-
#79916347
1%
1-
b1100100 >
#79999680
0%
0-
#80083013
1%
1-
b1100101 >
#80166346
0%
0-
#80249679
1%
1-
b1100110 >
#80333012
0%
0-
#80416345
1%
1-
b1100111 >
#80499678
0%
0-
#80583011
1%
1-
b1101000 >
#80666344
0%
0-
#80749677
1%
1-
b1101001 >
#80833010
0%
0-
#80916343
1%
1-
b1101010 >
#80999676
0%
0-
#81083009
1%
1-
b1101011 >
#81166342
0%
0-
#81249675
1%
1-
b1101100 >
#81333008
0%
0-
#81416341
1%
1-
b1101101 >
#81499674
0%
0-
